Orthopedic Condition Prediction
…
3.1. Benchmark

Before exploring different machine learning algorithms, we can make use of the high predicting power of one of the predictors, degree_spondylolisthesis to construct a rather simple prediction. For Data 1, we can predict high degree_spondylolisthesis with Abnormal. Here we experimented with cutoff values from -12 to 25.

cut_dp<-seq(-12,25,0.1)
predict_benchmark<-function(cutoff){ #data is a vector of degree_spondylolisthesis
  mean(ifelse(train_set1$degree_spondylolisthesis>cutoff,"Abnormal","Normal")==train_set1$class)
}
tibble(cutoff=cut_dp, train_accuracy=sapply(cut_dp,predict_benchmark))%>%arrange(desc(train_accuracy))

## # A tibble: 371 x 2
##    cutoff train_accuracy
##     <dbl>          <dbl>
##  1   5.4           0.810
##  2   6.1           0.810
##  3   6.20          0.810
##  4   6.3           0.810
##  5   5.1           0.806
##  6   5.20          0.806
##  7   5.3           0.806
##  8   5.5           0.806
##  9   5.6           0.806
## 10   5.70          0.806
## #  with 361 more rows
…
